{
  "response": {
    "status": "ok",
    "userTier": "developer",
    "total": 2603074,
    "startIndex": 1,
    "pageSize": 10,
    "currentPage": 1,
    "pages": 260308,
    "orderBy": "newest",
    "results": [
      {
        "id": "sport/live/2025/jul/26/england-v-india-fourth-mens-cricket-test-day-four-live",
        "type": "liveblog",
        "sectionId": "sport",
        "sectionName": "Sport",
        "webPublicationDate": "2025-07-26T10:48:45Z",
        "webTitle": "England v India: fourth men’s cricket Test, day four – live",
        "webUrl": "https://www.theguardian.com/sport/live/2025/jul/26/england-v-india-fourth-mens-cricket-test-day-four-live",
        "apiUrl": "https://content.guardianapis.com/sport/live/2025/jul/26/england-v-india-fourth-mens-cricket-test-day-four-live",
        "isHosted": false,
        "pillarId": "pillar/sport",
        "pillarName": "Sport"
      },
      {
        "id": "sport/live/2025/jul/26/australia-british-and-irish-lions-rugby-union-second-test-live",
        "type": "liveblog",
        "sectionId": "sport",
        "sectionName": "Sport",
        "webPublicationDate": "2025-07-26T10:47:58Z",
        "webTitle": "Australia v British & Irish Lions: second Test – live",
        "webUrl": "https://www.theguardian.com/sport/live/2025/jul/26/australia-british-and-irish-lions-rugby-union-second-test-live",
        "apiUrl": "https://content.guardianapis.com/sport/live/2025/jul/26/australia-british-and-irish-lions-rugby-union-second-test-live",
        "isHosted": false,
        "pillarId": "pillar/sport",
        "pillarName": "Sport"
      },
      {
        "id": "football/live/2025/jul/26/euro-2025-final-buildup-england-spain-football-news-live",
        "type": "liveblog",
        "sectionId": "football",
        "sectionName": "Football",
        "webPublicationDate": "2025-07-26T10:47:30Z",
        "webTitle": "Euro 2025 final buildup as England prepare to take on Spain: football news – live",
        "webUrl": "https://www.theguardian.com/football/live/2025/jul/26/euro-2025-final-buildup-england-spain-football-news-live",
        "apiUrl": "https://content.guardianapis.com/football/live/2025/jul/26/euro-2025-final-buildup-england-spain-football-news-live",
        "isHosted": false,
        "pillarId": "pillar/sport",
        "pillarName": "Sport"
      },
      {
        "id": "sport/live/2025/jul/26/tour-de-france-2025-stage-20-from-nantua-to-pontarlier-live",
        "type": "liveblog",
        "sectionId": "sport",
        "sectionName": "Sport",
        "webPublicationDate": "2025-07-26T10:47:24Z",
        "webTitle": "Tour de France 2025: stage 20 from Nantua to Pontarlier – live",
        "webUrl": "https://www.theguardian.com/sport/live/2025/jul/26/tour-de-france-2025-stage-20-from-nantua-to-pontarlier-live",
        "apiUrl": "https://content.guardianapis.com/sport/live/2025/jul/26/tour-de-france-2025-stage-20-from-nantua-to-pontarlier-live",
        "isHosted": false,
        "pillarId": "pillar/sport",
        "pillarName": "Sport"
      },
      {
        "id": "sport/live/2025/jul/26/belgian-grand-prix-sprint-race-and-qualifying-formula-one-live",
        "type": "liveblog",
        "sectionId": "sport",
        "sectionName": "Sport",
        "webPublicationDate": "2025-07-26T10:47:01Z",
        "webTitle": "Max Verstappen holds off McLarens to win Belgian F1 GP sprint race in boost for Red Bull – live reaction",
        "webUrl": "https://www.theguardian.com/sport/live/2025/jul/26/belgian-grand-prix-sprint-race-and-qualifying-formula-one-live",
        "apiUrl": "https://content.guardianapis.com/sport/live/2025/jul/26/belgian-grand-prix-sprint-race-and-qualifying-formula-one-live",
        "isHosted": false,
        "pillarId": "pillar/sport",
        "pillarName": "Sport"
      },
      {
        "id": "world/live/2025/jul/26/israel-gaza-war-palestinian-state-palestine-middle-east-latest-news-updates",
        "type": "liveblog",
        "sectionId": "world",
        "sectionName": "World news",
        "webPublicationDate": "2025-07-26T10:33:39Z",
        "webTitle": "Israel-Gaza war live: Europe debates recognition of Palestine as starvation spreads in Gaza",
        "webUrl": "https://www.theguardian.com/world/live/2025/jul/26/israel-gaza-war-palestinian-state-palestine-middle-east-latest-news-updates",
        "apiUrl": "https://content.guardianapis.com/world/live/2025/jul/26/israel-gaza-war-palestinian-state-palestine-middle-east-latest-news-updates",
        "isHosted": false,
        "pillarId": "pillar/news",
        "pillarName": "News"
      },
      {
        "id": "us-news/2025/jul/26/trump-medicaid-healthcare-cuts-missouri",
        "type": "article",
        "sectionId": "us-news",
        "sectionName": "US news",
        "webPublicationDate": "2025-07-26T10:00:51Z",
        "webTitle": "‘We need some hope’: can a rural hospital on the brink survive Trump’s bill?",
        "webUrl": "https://www.theguardian.com/us-news/2025/jul/26/trump-medicaid-healthcare-cuts-missouri",
        "apiUrl": "https://content.guardianapis.com/us-news/2025/jul/26/trump-medicaid-healthcare-cuts-missouri",
        "isHosted": false,
        "pillarId": "pillar/news",
        "pillarName": "News"
      },
      {
        "id": "uk-news/2025/jul/26/before-i-felt-safe-and-the-locals-were-nice-asylum-seekers-on-how-epping-protests-have-transformed-daily-life",
        "type": "article",
        "sectionId": "uk-news",
        "sectionName": "UK news",
        "webPublicationDate": "2025-07-26T10:00:51Z",
        "webTitle": "‘Before, I felt safe and the locals were nice’: asylum seekers on how Epping protests have transformed daily life",
        "webUrl": "https://www.theguardian.com/uk-news/2025/jul/26/before-i-felt-safe-and-the-locals-were-nice-asylum-seekers-on-how-epping-protests-have-transformed-daily-life",
        "apiUrl": "https://content.guardianapis.com/uk-news/2025/jul/26/before-i-felt-safe-and-the-locals-were-nice-asylum-seekers-on-how-epping-protests-have-transformed-daily-life",
        "isHosted": false,
        "pillarId": "pillar/news",
        "pillarName": "News"
      },
      {
        "id": "lifeandstyle/2025/jul/26/zahyr-caan-best-phone-picture",
        "type": "article",
        "sectionId": "lifeandstyle",
        "sectionName": "Life and style",
        "webPublicationDate": "2025-07-26T10:00:50Z",
        "webTitle": "‘I had to wait for some colour to arrive – the red man appeared at just the right moment’: Zahyr Caan’s best phone picture",
        "webUrl": "https://www.theguardian.com/lifeandstyle/2025/jul/26/zahyr-caan-best-phone-picture",
        "apiUrl": "https://content.guardianapis.com/lifeandstyle/2025/jul/26/zahyr-caan-best-phone-picture",
        "isHosted": false,
        "pillarId": "pillar/lifestyle",
        "pillarName": "Lifestyle"
      },
      {
        "id": "football/2025/jul/26/rise-of-michelle-agyemang-lioness-euro-2025",
        "type": "article",
        "sectionId": "football",
        "sectionName": "Football",
        "webPublicationDate": "2025-07-26T10:00:49Z",
        "webTitle": "‘She’s an inspiration to the youngsters’: the rapid rise of Michelle Agyemang",
        "webUrl": "https://www.theguardian.com/football/2025/jul/26/rise-of-michelle-agyemang-lioness-euro-2025",
        "apiUrl": "https://content.guardianapis.com/football/2025/jul/26/rise-of-michelle-agyemang-lioness-euro-2025",
        "isHosted": false,
        "pillarId": "pillar/sport",
        "pillarName": "Sport"
      }
    ]
  }
}
